Trafonun Kalan Yıl Ömrünü Tahmin Etme
…
Veri kümesi üzerinde keşifsel çalışmalar

Eksik değer kontrolü

## [1] 0

Veri temizleme

Verilerimiz içinde Omur_Tahmini_Yil değeri 0 dan küçük kayıtları
temizliyoruz ve yeni bir değişkene atıyoruz.

## # A tibble: 250 × 4
##      Yas Nem_Orani Ariza_Gecmisi Omur_Tahmini_Yil
##    <dbl>     <dbl>         <dbl>            <dbl>
##  1    39      36.1            20                5
##  2    29      27.6            15               11
##  3    15      66.9             6               21
##  4    43      74.8            12                5
##  5     8      37.9            20               13
##  6    21      17.7             9               28
##  7    39      85.2             6                5
##  8    19      41.8            13               16
##  9    23      51.4             4               24
## 10    11      77.0             2               27
## # ℹ 240 more rows
…
